/Users/mathiasrudig/Documents/01_IT-Kolleg/02_Semester 2/POS_Praxis_Landerer/04_Projekte/Semesterprojekt/HausmeisterAppGui/hausmeisterapp/src/main/java/domain/interference/StoerungMitDeadline.java
/Users/mathiasrudig/Documents/01_IT-Kolleg/02_Semester 2/POS_Praxis_Landerer/04_Projekte/Semesterprojekt/HausmeisterAppGui/hausmeisterapp/src/main/java/domain/interference/SammlungStoerungen.java
/Users/mathiasrudig/Documents/01_IT-Kolleg/02_Semester 2/POS_Praxis_Landerer/04_Projekte/Semesterprojekt/HausmeisterAppGui/hausmeisterapp/src/main/java/domain/DataStore.java
/Users/mathiasrudig/Documents/01_IT-Kolleg/02_Semester 2/POS_Praxis_Landerer/04_Projekte/Semesterprojekt/HausmeisterAppGui/hausmeisterapp/src/main/java/domain/interference/StatusStoerung.java
/Users/mathiasrudig/Documents/01_IT-Kolleg/02_Semester 2/POS_Praxis_Landerer/04_Projekte/Semesterprojekt/HausmeisterAppGui/hausmeisterapp/src/main/java/exceptions/InvalidSubsectionsException.java
/Users/mathiasrudig/Documents/01_IT-Kolleg/02_Semester 2/POS_Praxis_Landerer/04_Projekte/Semesterprojekt/HausmeisterAppGui/hausmeisterapp/src/main/java/domain/buildingstructure/StockwerkListe.java
/Users/mathiasrudig/Documents/01_IT-Kolleg/02_Semester 2/POS_Praxis_Landerer/04_Projekte/Semesterprojekt/HausmeisterAppGui/hausmeisterapp/src/main/java/exceptions/SaveDataException.java
/Users/mathiasrudig/Documents/01_IT-Kolleg/02_Semester 2/POS_Praxis_Landerer/04_Projekte/Semesterprojekt/HausmeisterAppGui/hausmeisterapp/src/main/java/exceptions/InvalidInputException.java
/Users/mathiasrudig/Documents/01_IT-Kolleg/02_Semester 2/POS_Praxis_Landerer/04_Projekte/Semesterprojekt/HausmeisterAppGui/hausmeisterapp/src/main/java/ui/InputStoerungController.java
/Users/mathiasrudig/Documents/01_IT-Kolleg/02_Semester 2/POS_Praxis_Landerer/04_Projekte/Semesterprojekt/HausmeisterAppGui/hausmeisterapp/src/main/java/infrastruktur/DateBuilder.java
/Users/mathiasrudig/Documents/01_IT-Kolleg/02_Semester 2/POS_Praxis_Landerer/04_Projekte/Semesterprojekt/HausmeisterAppGui/hausmeisterapp/src/main/java/exceptions/RetrieveDataException.java
/Users/mathiasrudig/Documents/01_IT-Kolleg/02_Semester 2/POS_Praxis_Landerer/04_Projekte/Semesterprojekt/HausmeisterAppGui/hausmeisterapp/src/main/java/infrastruktur/InputChecker.java
/Users/mathiasrudig/Documents/01_IT-Kolleg/02_Semester 2/POS_Praxis_Landerer/04_Projekte/Semesterprojekt/HausmeisterAppGui/hausmeisterapp/src/main/java/exceptions/InvalidStoerungException.java
/Users/mathiasrudig/Documents/01_IT-Kolleg/02_Semester 2/POS_Praxis_Landerer/04_Projekte/Semesterprojekt/HausmeisterAppGui/hausmeisterapp/src/main/java/ui/AenderungMenueConroller.java
/Users/mathiasrudig/Documents/01_IT-Kolleg/02_Semester 2/POS_Praxis_Landerer/04_Projekte/Semesterprojekt/HausmeisterAppGui/hausmeisterapp/src/main/java/com/hausmeister/sample/DummyDateien.java
/Users/mathiasrudig/Documents/01_IT-Kolleg/02_Semester 2/POS_Praxis_Landerer/04_Projekte/Semesterprojekt/HausmeisterAppGui/hausmeisterapp/src/main/java/exceptions/InvalidFloorException.java
/Users/mathiasrudig/Documents/01_IT-Kolleg/02_Semester 2/POS_Praxis_Landerer/04_Projekte/Semesterprojekt/HausmeisterAppGui/hausmeisterapp/src/main/java/exceptions/InvalidDateException.java
/Users/mathiasrudig/Documents/01_IT-Kolleg/02_Semester 2/POS_Praxis_Landerer/04_Projekte/Semesterprojekt/HausmeisterAppGui/hausmeisterapp/src/main/java/com/hausmeister/sample/HausmeisterApp.java
/Users/mathiasrudig/Documents/01_IT-Kolleg/02_Semester 2/POS_Praxis_Landerer/04_Projekte/Semesterprojekt/HausmeisterAppGui/hausmeisterapp/src/main/java/domain/buildingstructure/Raum.java
/Users/mathiasrudig/Documents/01_IT-Kolleg/02_Semester 2/POS_Praxis_Landerer/04_Projekte/Semesterprojekt/HausmeisterAppGui/hausmeisterapp/src/main/java/domain/buildingstructure/Stockwerk.java
/Users/mathiasrudig/Documents/01_IT-Kolleg/02_Semester 2/POS_Praxis_Landerer/04_Projekte/Semesterprojekt/HausmeisterAppGui/hausmeisterapp/src/main/java/domain/interference/Stoerung.java
/Users/mathiasrudig/Documents/01_IT-Kolleg/02_Semester 2/POS_Praxis_Landerer/04_Projekte/Semesterprojekt/HausmeisterAppGui/hausmeisterapp/src/main/java/ui/GlobalContext.java
/Users/mathiasrudig/Documents/01_IT-Kolleg/02_Semester 2/POS_Praxis_Landerer/04_Projekte/Semesterprojekt/HausmeisterAppGui/hausmeisterapp/src/main/java/exceptions/InvalidStatusException.java
/Users/mathiasrudig/Documents/01_IT-Kolleg/02_Semester 2/POS_Praxis_Landerer/04_Projekte/Semesterprojekt/HausmeisterAppGui/hausmeisterapp/src/main/java/infrastruktur/FileDataStore.java
/Users/mathiasrudig/Documents/01_IT-Kolleg/02_Semester 2/POS_Praxis_Landerer/04_Projekte/Semesterprojekt/HausmeisterAppGui/hausmeisterapp/src/main/java/domain/buildingstructure/RaumListe.java
/Users/mathiasrudig/Documents/01_IT-Kolleg/02_Semester 2/POS_Praxis_Landerer/04_Projekte/Semesterprojekt/HausmeisterAppGui/hausmeisterapp/src/main/java/domain/interference/Gewerke.java
/Users/mathiasrudig/Documents/01_IT-Kolleg/02_Semester 2/POS_Praxis_Landerer/04_Projekte/Semesterprojekt/HausmeisterAppGui/hausmeisterapp/src/main/java/ui/BaseControllerState.java
/Users/mathiasrudig/Documents/01_IT-Kolleg/02_Semester 2/POS_Praxis_Landerer/04_Projekte/Semesterprojekt/HausmeisterAppGui/hausmeisterapp/src/main/java/exceptions/InvalidRoomException.java
/Users/mathiasrudig/Documents/01_IT-Kolleg/02_Semester 2/POS_Praxis_Landerer/04_Projekte/Semesterprojekt/HausmeisterAppGui/hausmeisterapp/src/main/java/ui/MainController.java
